R Data Analytics Workshop at NTPU, 2022
…
---
## filter() function

<span Style="color:blue">filter()</span> is used when we want to subset observations based on a logical condition. For example, we can select all fights on December 25th using the following code. 

```r
filter(df, month == 12, day == 25)
```

```
## # A tibble: 719 x 19
##     year month   day dep_time sched_dep_time dep_delay arr_time sched_arr_time
##    <int> <int> <int>    <int>          <int>     <dbl>    <int>          <int>
##  1  2013    12    25      456            500        -4      649            651
##  2  2013    12    25      524            515         9      805            814
##  3  2013    12    25      542            540         2      832            850
##  4  2013    12    25      546            550        -4     1022           1027
##  5  2013    12    25      556            600        -4      730            745
##  6  2013    12    25      557            600        -3      743            752
##  7  2013    12    25      557            600        -3      818            831
##  8  2013    12    25      559            600        -1      855            856
##  9  2013    12    25      559            600        -1      849            855
## 10  2013    12    25      600            600         0      850            846
## # ... with 709 more rows, and 11 more variables: arr_delay <dbl>,
## #   carrier <chr>, flight <int>, tailnum <chr>, origin <chr>, dest <chr>,
## #   air_time <dbl>, distance <dbl>, hour <dbl>, minute <dbl>, time_hour <dttm>
```
…
---
## Comparisons

R provides the standard suite: <, <=, >, >=, != (not equal), and == (equal). 

If we would like to save the results to a variable as well as print them, we can wrap the assignment in parentheses

```r
(Jan1 <- filter(df, month == 1, day == 1)) 
```

```
## # A tibble: 842 x 19
##     year month   day dep_time sched_dep_time dep_delay arr_time sched_arr_time
##    <int> <int> <int>    <int>          <int>     <dbl>    <int>          <int>
##  1  2013     1     1      517            515         2      830            819
##  2  2013     1     1      533            529         4      850            830
##  3  2013     1     1      542            540         2      923            850
##  4  2013     1     1      544            545        -1     1004           1022
##  5  2013     1     1      554            600        -6      812            837
##  6  2013     1     1      554            558        -4      740            728
##  7  2013     1     1      555            600        -5      913            854
##  8  2013     1     1      557            600        -3      709            723
##  9  2013     1     1      557            600        -3      838            846
## 10  2013     1     1      558            600        -2      753            745
## # ... with 832 more rows, and 11 more variables: arr_delay <dbl>,
## #   carrier <chr>, flight <int>, tailnum <chr>, origin <chr>, dest <chr>,
## #   air_time <dbl>, distance <dbl>, hour <dbl>, minute <dbl>, time_hour <dttm>
```

---
## Logical Operations

R provides the following syntax: & is "and", | is "or", ! is "not". The following code finds all flights that departed in July or August. 

```r
filter(df, month == 7 | month == 8)
```

```
## # A tibble: 58,752 x 19
##     year month   day dep_time sched_dep_time dep_delay arr_time sched_arr_time
##    <int> <int> <int>    <int>          <int>     <dbl>    <int>          <int>
##  1  2013     7     1        1           2029       212      236           2359
##  2  2013     7     1        2           2359         3      344            344
##  3  2013     7     1       29           2245       104      151              1
##  4  2013     7     1       43           2130       193      322             14
##  5  2013     7     1       44           2150       174      300            100
##  6  2013     7     1       46           2051       235      304           2358
##  7  2013     7     1       48           2001       287      308           2305
##  8  2013     7     1       58           2155       183      335             43
##  9  2013     7     1      100           2146       194      327             30
## 10  2013     7     1      100           2245       135      337            135
## # ... with 58,742 more rows, and 11 more variables: arr_delay <dbl>,
## #   carrier <chr>, flight <int>, tailnum <chr>, origin <chr>, dest <chr>,
## #   air_time <dbl>, distance <dbl>, hour <dbl>, minute <dbl>, time_hour <dttm>
```
…
**Note:** 
  
1. If we use <span Style="color:blue">filter(df, month == 7 | 8)</span>, it finds all months are equal 7 | 8, an expression that evaluates to **TRUE**. In a numeric context, TRUE becomes one, so this finds all fights in the data. 

2. <span Style="color:blue">filter()</span> only includes rows where the condition is **TRUE** and it excludes both FALSE and NA values. 

If we want to find flights that weren't delayed on both arrival and departure by more than 1 hour, we could use either of the following codes. 

```r
filter(df, !(arr_delay > 60 | dep_delay > 60))
```

```
## # A tibble: 295,893 x 19
##     year month   day dep_time sched_dep_time dep_delay arr_time sched_arr_time
##    <int> <int> <int>    <int>          <int>     <dbl>    <int>          <int>
##  1  2013     1     1      517            515         2      830            819
##  2  2013     1     1      533            529         4      850            830
##  3  2013     1     1      542            540         2      923            850
##  4  2013     1     1      544            545        -1     1004           1022
##  5  2013     1     1      554            600        -6      812            837
##  6  2013     1     1      554            558        -4      740            728
##  7  2013     1     1      555            600        -5      913            854
##  8  2013     1     1      557            600        -3      709            723
##  9  2013     1     1      557            600        -3      838            846
## 10  2013     1     1      558            600        -2      753            745
## # ... with 295,883 more rows, and 11 more variables: arr_delay <dbl>,
## #   carrier <chr>, flight <int>, tailnum <chr>, origin <chr>, dest <chr>,
## #   air_time <dbl>, distance <dbl>, hour <dbl>, minute <dbl>, time_hour <dttm>
```
```r
filter(df, arr_delay <= 60, dep_delay <= 60)
```

---
## arrange() function

<span Style="color:blue">arrange()</span> is used when we want to sort a dataset by a variable. If more variables are specified for sorting a dataset, the variables entered first taking priority over those come later. The following code chunk gives an example that sorts the flights by dates.  

```r
arrange(df, year, month, day)
```

```
## # A tibble: 336,776 x 19
##     year month   day dep_time sched_dep_time dep_delay arr_time sched_arr_time
##    <int> <int> <int>    <int>          <int>     <dbl>    <int>          <int>
##  1  2013     1     1      517            515         2      830            819
##  2  2013     1     1      533            529         4      850            830
##  3  2013     1     1      542            540         2      923            850
##  4  2013     1     1      544            545        -1     1004           1022
##  5  2013     1     1      554            600        -6      812            837
##  6  2013     1     1      554            558        -4      740            728
##  7  2013     1     1      555            600        -5      913            854
##  8  2013     1     1      557            600        -3      709            723
##  9  2013     1     1      557            600        -3      838            846
## 10  2013     1     1      558            600        -2      753            745
## # ... with 336,766 more rows, and 11 more variables: arr_delay <dbl>,
## #   carrier <chr>, flight <int>, tailnum <chr>, origin <chr>, dest <chr>,
## #   air_time <dbl>, distance <dbl>, hour <dbl>, minute <dbl>, time_hour <dttm>
```
…
**Note:**
1. We can use a minus sign - to drop variables. 
2. There are several helper functions we can use within <span Style="color:blue">select()</span>. See <span Style="color:blue">?select</span> for the information. 
3. <span Style="color:blue">select()</span> can be used with the <span Style="color:blue">everything()</span> function when we have a handful of variables we would like to move to the start of the data frame. 

---

```r
# move carrier, origin, dest, and distance to the start of the data
select(df, carrier, origin, dest, distance, everything())
```

```
## # A tibble: 336,776 x 19
##    carrier origin dest  distance  year month   day dep_time sched_dep_time
##    <chr>   <chr>  <chr>    <dbl> <int> <int> <int>    <int>          <int>
##  1 UA      EWR    IAH       1400  2013     1     1      517            515
##  2 UA      LGA    IAH       1416  2013     1     1      533            529
##  3 AA      JFK    MIA       1089  2013     1     1      542            540
##  4 B6      JFK    BQN       1576  2013     1     1      544            545
##  5 DL      LGA    ATL        762  2013     1     1      554            600
##  6 UA      EWR    ORD        719  2013     1     1      554            558
##  7 B6      EWR    FLL       1065  2013     1     1      555            600
##  8 EV      LGA    IAD        229  2013     1     1      557            600
##  9 B6      JFK    MCO        944  2013     1     1      557            600
## 10 AA      LGA    ORD        733  2013     1     1      558            600
## # ... with 336,766 more rows, and 10 more variables: dep_delay <dbl>,
## #   arr_time <int>, sched_arr_time <int>, arr_delay <dbl>, flight <int>,
## #   tailnum <chr>, air_time <dbl>, hour <dbl>, minute <dbl>, time_hour <dttm>
```
…
---

We create four variables using variables in the data. 

```r
mutate(df1, 
       gain= arr_delay - dep_delay, 
       speed = distance / air_time * 60,
       hours = air_time / 60,
       gain_per_hour = gain / hours)
```

```
## # A tibble: 336,776 x 11
##     year month   day dep_delay arr_delay distance air_time  gain speed hours
##    <int> <int> <int>     <dbl>     <dbl>    <dbl>    <dbl> <dbl> <dbl> <dbl>
##  1  2013     1     1         2        11     1400      227     9  370. 3.78 
##  2  2013     1     1         4        20     1416      227    16  374. 3.78 
##  3  2013     1     1         2        33     1089      160    31  408. 2.67 
##  4  2013     1     1        -1       -18     1576      183   -17  517. 3.05 
##  5  2013     1     1        -6       -25      762      116   -19  394. 1.93 
##  6  2013     1     1        -4        12      719      150    16  288. 2.5  
##  7  2013     1     1        -5        19     1065      158    24  404. 2.63 
##  8  2013     1     1        -3       -14      229       53   -11  259. 0.883
##  9  2013     1     1        -3        -8      944      140    -5  405. 2.33 
## 10  2013     1     1        -2         8      733      138    10  319. 2.3  
## # ... with 336,766 more rows, and 1 more variable: gain_per_hour <dbl>
```

---

If we want to keep only the new variables, use <span Style="color:blue">transmute()</span>. 

```r
transmute(df1, 
          gain= arr_delay - dep_delay, 
          speed = distance / air_time * 60,
          hours = air_time / 60,
          gain_per_hour = gain / hours)
```

```
## # A tibble: 336,776 x 4
##     gain speed hours gain_per_hour
##    <dbl> <dbl> <dbl>         <dbl>
##  1     9  370. 3.78           2.38
##  2    16  374. 3.78           4.23
##  3    31  408. 2.67          11.6 
##  4   -17  517. 3.05          -5.57
##  5   -19  394. 1.93          -9.83
##  6    16  288. 2.5            6.4 
##  7    24  404. 2.63           9.11
##  8   -11  259. 0.883        -12.5 
##  9    -5  405. 2.33          -2.14
## 10    10  319. 2.3            4.35
## # ... with 336,766 more rows
```
…
---

In general, <span Style="color:blue">summarize()</span> function is used together with <span Style="color:blue">group_by()</span> as we group rows for some purposes. <span Style="color:blue">group_by()</span> is used to group rows by one or more variables, giving priority to the variable entered first. 

```r
group_by(df, year, month, day)
```

```
## # A tibble: 336,776 x 19
## # Groups:   year, month, day [365]
##     year month   day dep_time sched_dep_time dep_delay arr_time sched_arr_time
##    <int> <int> <int>    <int>          <int>     <dbl>    <int>          <int>
##  1  2013     1     1      517            515         2      830            819
##  2  2013     1     1      533            529         4      850            830
##  3  2013     1     1      542            540         2      923            850
##  4  2013     1     1      544            545        -1     1004           1022
##  5  2013     1     1      554            600        -6      812            837
##  6  2013     1     1      554            558        -4      740            728
##  7  2013     1     1      555            600        -5      913            854
##  8  2013     1     1      557            600        -3      709            723
##  9  2013     1     1      557            600        -3      838            846
## 10  2013     1     1      558            600        -2      753            745
## # ... with 336,766 more rows, and 11 more variables: arr_delay <dbl>,
## #   carrier <chr>, flight <int>, tailnum <chr>, origin <chr>, dest <chr>,
## #   air_time <dbl>, distance <dbl>, hour <dbl>, minute <dbl>, time_hour <dttm>
```
…
---

For example, we can study the average departure / arrival delays for each day. 

```r
by_day <- group_by(df, year, month, day) 
summarize(by_day, 
          ave_dep_delay = mean(dep_delay, na.rm = T),
          ave_arr_delay = mean(arr_delay, na.rm = T)
)
```

```
## # A tibble: 365 x 5
## # Groups:   year, month [12]
##     year month   day ave_dep_delay ave_arr_delay
##    <int> <int> <int>         <dbl>         <dbl>
##  1  2013     1     1         11.5         12.7  
##  2  2013     1     2         13.9         12.7  
##  3  2013     1     3         11.0          5.73 
##  4  2013     1     4          8.95        -1.93 
##  5  2013     1     5          5.73        -1.53 
##  6  2013     1     6          7.15         4.24 
##  7  2013     1     7          5.42        -4.95 
##  8  2013     1     8          2.55        -3.23 
##  9  2013     1     9          2.28        -0.264
## 10  2013     1    10          2.84        -5.90 
## # ... with 355 more rows
```
…
```r
delay <- df %>% 
  group_by(dest) %>%
  summarize(
    count = n(),
    ave_dist = mean(distance, na.rm=T),
    ave_arr_delay = mean(arr_delay, na.rm=T)
  ) %>%
  filter(count > 20, dest != "HNL")

delay
```

```
## # A tibble: 96 x 4
##    dest  count ave_dist ave_arr_delay
##    <chr> <int>    <dbl>         <dbl>
##  1 ABQ     254    1826           4.38
##  2 ACK     265     199           4.85
##  3 ALB     439     143          14.4 
##  4 ATL   17215     757.         11.3 
##  5 AUS    2439    1514.          6.02
##  6 AVL     275     584.          8.00
##  7 BDL     443     116           7.05
##  8 BGR     375     378           8.03
##  9 BHM     297     866.         16.9 
## 10 BNA    6333     758.         11.8 
## # ... with 86 more rows
```
…
